<?xml version="1.0" encoding="UTF-8" standalone="no"?>
<svg
   xmlns:dc="http://purl.org/dc/elements/1.1/"
   xmlns:cc="http://creativecommons.org/ns#"
   xmlns:rdf="http://www.w3.org/1999/02/22-rdf-syntax-ns#"
   xmlns:svg="http://www.w3.org/2000/svg"
   xmlns="http://www.w3.org/2000/svg"
   height="512px"
   width="512px"
   xml:space="preserve"
   style="enable-background:new 0 0 492 492;"
   viewBox="0 0 492 492"
   y="0px"
   x="0px"
   id="Layer_1"
   version="1.1"><metadata
     id="metadata1792"><rdf:RDF><cc:Work
         rdf:about=""><dc:format>image/svg+xml</dc:format><dc:type
           rdf:resource="http://purl.org/dc/dcmitype/StillImage" /><dc:title></dc:title></cc:Work></rdf:RDF></metadata><defs
     id="defs1790" /><g
     id="g1755"><g
       id="g1753"><path
         style="fill:#ffffff"
         id="path1751"
         d="m 207.41795,27.655946 0.168,-0.768 V 356.11195 l -103.724,-103.496 c -5.064004,-5.068 -11.924004,-7.848 -19.124004,-7.848 -7.2,0 -14.012,2.78 -19.088,7.848 l -16.112,16.104 c -5.064,5.064 -7.864,11.812 -7.864,19.008 0,7.2 2.78,13.952 7.844,19.016 l 177.396004,177.412 c 5.084,5.084 11.856,7.864 19.06,7.844 7.244,0.02 14.02,-2.76 19.096,-7.844 l 177.412,-177.412 c 5.06,-5.064 7.844,-11.812 7.844,-19.016 0,-7.196 -2.788,-13.944 -7.844,-19.008 l -16.112,-16.104 c -5.056,-5.068 -11.808,-7.848 -19.008,-7.848 -7.196,0 -13.592,2.78 -18.652,7.848 l -104.304,104.664 V 27.287946 c 0,-14.828 -12.78,-27.287999582731 -27.6,-27.287999582731 h -22.788 c -14.82,0 -26.6,12.827999582731 -26.6,27.655999582731 z" /></g></g><g
     id="g1757" /><g
     id="g1759" /><g
     id="g1761" /><g
     id="g1763" /><g
     id="g1765" /><g
     id="g1767" /><g
     id="g1769" /><g
     id="g1771" /><g
     id="g1773" /><g
     id="g1775" /><g
     id="g1777" /><g
     id="g1779" /><g
     id="g1781" /><g
     id="g1783" /><g
     id="g1785" /></svg>