<?xml version="1.0" encoding="UTF-8" standalone="no"?>
<svg
   xmlns:dc="http://purl.org/dc/elements/1.1/"
   xmlns:cc="http://creativecommons.org/ns#"
   xmlns:rdf="http://www.w3.org/1999/02/22-rdf-syntax-ns#"
   xmlns:svg="http://www.w3.org/2000/svg"
   xmlns="http://www.w3.org/2000/svg"
   xmlns:sodipodi="http://sodipodi.sourceforge.net/DTD/sodipodi-0.dtd"
   xmlns:inkscape="http://www.inkscape.org/namespaces/inkscape"
   height="380.17133"
   width="449.1207"
   xml:space="preserve"
   viewBox="0 0 27.613035 23.373854"
   y="0px"
   x="0px"
   id="Capa_1"
   version="1.1"
   sodipodi:docname="icon-translation.svg"
   inkscape:version="0.92.2 5c3e80d, 2017-08-06"><sodipodi:namedview
     pagecolor="#ffffff"
     bordercolor="#666666"
     borderopacity="1"
     objecttolerance="10"
     gridtolerance="10"
     guidetolerance="10"
     inkscape:pageopacity="0"
     inkscape:pageshadow="2"
     inkscape:window-width="1341"
     inkscape:window-height="809"
     id="namedview1058"
     showgrid="false"
     fit-margin-top="10"
     fit-margin-left="10"
     fit-margin-right="10"
     fit-margin-bottom="10"
     inkscape:zoom="1.2530027"
     inkscape:cx="215.91658"
     inkscape:cy="148.32124"
     inkscape:window-x="0"
     inkscape:window-y="0"
     inkscape:window-maximized="0"
     inkscape:current-layer="Capa_1"
     showguides="true"
     inkscape:guide-bbox="true"><sodipodi:guide
       position="2.129182,12.841371"
       orientation="0,1"
       id="guide878"
       inkscape:locked="false" /></sodipodi:namedview><metadata
     id="metadata39"><rdf:RDF><cc:Work
         rdf:about=""><dc:format>image/svg+xml</dc:format><dc:type
           rdf:resource="http://purl.org/dc/dcmitype/StillImage" /><dc:title></dc:title></cc:Work></rdf:RDF></metadata><defs
     id="defs37" /><path
     style="fill:#b8b8b8"
     id="path2"
     d="m 16.723458,22.426033 c -0.444,0.444 -1.143,0.444 -1.587,0 -0.429,-0.429 -0.429,-1.143 0,-1.571 l 8.047,-8.047 h -7.995443 c -0.619,0 -1.111,-0.492 -1.111,-1.111 0,-0.619 0.492,-1.127001 1.111,-1.127001 h 7.996443 l -8.047,-8.0309984 c -0.429,-0.444 -0.429,-1.159 0,-1.58699998 0.444,-0.444 1.143,-0.444 1.587,0 l 9.952,9.95199938 c 0.429,0.429 0.429,1.143 0,1.571 z"
     inkscape:connector-curvature="0" /><g
     transform="translate(-4.8291311,-1.5524528)"
     id="g4" /><g
     transform="translate(-4.8291311,-1.5524528)"
     id="g6" /><g
     transform="translate(-4.8291311,-1.5524528)"
     id="g8" /><g
     transform="translate(-4.8291311,-1.5524528)"
     id="g10" /><g
     transform="translate(-4.8291311,-1.5524528)"
     id="g12" /><g
     transform="translate(-4.8291311,-1.5524528)"
     id="g14" /><g
     transform="translate(-4.8291311,-1.5524528)"
     id="g16" /><g
     transform="translate(-4.8291311,-1.5524528)"
     id="g18" /><g
     transform="translate(-4.8291311,-1.5524528)"
     id="g20" /><g
     transform="translate(-4.8291311,-1.5524528)"
     id="g22" /><g
     transform="translate(-4.8291311,-1.5524528)"
     id="g24" /><g
     transform="translate(-4.8291311,-1.5524528)"
     id="g26" /><g
     transform="translate(-4.8291311,-1.5524528)"
     id="g28" /><g
     transform="translate(-4.8291311,-1.5524528)"
     id="g30" /><g
     transform="translate(-4.8291311,-1.5524528)"
     id="g32" /><path
     inkscape:connector-curvature="0"
     d="m 10.889574,22.421823 c 0.444,0.444 1.143,0.444 1.587,0 0.429,-0.429 0.429,-1.143 0,-1.571 l -8.0469997,-8.047 h 7.9954427 c 0.619,0 1.111,-0.492 1.111,-1.111 0,-0.619 -0.492,-1.127001 -1.111,-1.127001 H 4.4285743 L 12.475574,2.5348243 c 0.429,-0.444 0.429,-1.159 0,-1.58699999 -0.444,-0.44400002 -1.143,-0.44400002 -1.587,0 L 0.93657432,10.899823 c -0.42900003,0.429 -0.42900003,1.143 0,1.571 z"
     id="path876"
     style="fill:#b8b8b8" /></svg>